…
While a quick overview of the the core functionality is below, see the
vignettes and our package website for more information on how to use
these functions.

### Converting ZIP Codes to ZCTAs

The `zi_load_crosswalk()` function provides access to the former UDS
Mapper project’s ZIP Code to ZCTA crosswalk. This function returns a
data frame with ZIP Codes and their corresponding ZCTAs.

``` r
> zi_load_crosswalk(year = 2020)
# A tibble: 41,096 × 6                                                                                                                                                                                 
   ZIP   PO_NAME    STATE ZIP_TYPE                             ZCTA  zip_join_type       
   <chr> <chr>      <chr> <chr>                                <chr> <chr>               
 1 00501 Holtsville NY    Post Office or large volume customer 11742 Spatial join to ZCTA
 2 00544 Holtsville NY    Post Office or large volume customer 11742 Spatial join to ZCTA
 3 00601 Adjuntas   PR    ZIP Code Area                        00601 ZIP Matches ZCTA    
 4 00602 Aguada     PR    ZIP Code Area                        00602 ZIP Matches ZCTA    
 5 00603 Aguadilla  PR    ZIP Code Area                        00603 ZIP Matches ZCTA    
 6 00604 Aguadilla  PR    Post Office or large volume customer 00603 Spatial join to ZCTA
 7 00605 Aguadilla  PR    Post Office or large volume customer 00603 Spatial join to ZCTA
 8 00606 Maricao    PR    ZIP Code Area                        00606 ZIP Matches ZCTA    
 9 00610 Anasco     PR    ZIP Code Area                        00610 ZIP Matches ZCTA    
10 00611 Angeles    PR    Post Office or large volume customer 00641 Spatial join to ZCTA
# … with 41,086 more rows
```
…
