…
```{r, include = FALSE}
knitr::opts_chunk$set(
  collapse = TRUE,
  comment = "#>"
)
```

As we've noted in our basic overview of ZIP Codes, they are identical to the U.S. Census Bureau's ZIP Code Tabulation Areas or other geographies. We therefore use crosswalk files to convert ZIP Codes to these other identifiers. 

## UDS's ZIP Code to ZCTA Crosswalks
`zippeR` provides an interface for accessing the former UDS Mapper project's ZIP to ZCTA crosswalk files](http://web.archive.org/web/20231218141557/https://udsmapper.org/zip-code-to-zcta-crosswalk/). Crosswalk files are critical because not all ZIP codes are in the exact same ZCTA. The UDS files are available from 2010 through 2021 in a standardized format:

```r
> zi_load_crosswalk(year = 2020)
# A tibble: 41,096 × 6                                                                                                                                                                                 
   ZIP   PO_NAME    STATE ZIP_TYPE                             ZCTA  zip_join_type       
   <chr> <chr>      <chr> <chr>                                <chr> <chr>               
 1 00501 Holtsville NY    Post Office or large volume customer 11742 Spatial join to ZCTA
 2 00544 Holtsville NY    Post Office or large volume customer 11742 Spatial join to ZCTA
 3 00601 Adjuntas   PR    ZIP Code Area                        00601 ZIP Matches ZCTA    
 4 00602 Aguada     PR    ZIP Code Area                        00602 ZIP Matches ZCTA    
 5 00603 Aguadilla  PR    ZIP Code Area                        00603 ZIP Matches ZCTA    
 6 00604 Aguadilla  PR    Post Office or large volume customer 00603 Spatial join to ZCTA
 7 00605 Aguadilla  PR    Post Office or large volume customer 00603 Spatial join to ZCTA
 8 00606 Maricao    PR    ZIP Code Area                        00606 ZIP Matches ZCTA    
 9 00610 Anasco     PR    ZIP Code Area                        00610 ZIP Matches ZCTA    
10 00611 Angeles    PR    Post Office or large volume customer 00641 Spatial join to ZCTA
# … with 41,086 more rows
```
…
