…
Three-digit ZIP Codes refer to a group of ZIP Codes that share the same first three digits. For example, the St. Louis, Missouri ZIP Codes 63101, 63102, and 63103 would all be part of the 631 three-digit ZIP Code. These first three digits correspond to "sectional center facilities" (SCFs) operated by the United States Postal Service (USPS). Sectional center facilities sit between larger "network distribution centers" (NDCs) and local post offices, sorting and distributing mail. Each SCF has one more three-digit ZIP Codes associated with it. The SCF for St. Louis is in St. Louis City, Missouri, and it services approximately a dozen three-digit ZIP Codes in Eastern Missouri and Southern Illinois.

Unlike five-digit ZIP Codes, which have the Census Bureau analogue of ZIP Code Tabulation Areas (ZCTAs), there is no Census equivalent for three-digit ZIP Codes. This is because three-digit ZIP Codes are not geographic areas, but rather mail sorting facilities. Aggregating ZCTAs using their first three digits illustrate yet another challenge - the boundaries of three-digit ZCTAs are not contiguous. This means that some ZCTAs are split into multiple pieces that are not adjacent to each other.

When the first three-digits are the only three digits given, it is not possible to use the ZIP to ZCTA crosswalk files included in `zippeR`. This increases the misclassification rate, because some of the observations will be assigned to the wrong three-digit ZCTA. For example, the ZIP Code 64999 in Kansas City is part of the 649 three-digit ZIP Code, but it is not part of the 649 three-digit ZCTA. According to the 2022 UDS crosswalk file, the appropriate ZCTA for 64999 is 64108, which has the 641 three-digit ZIP Code. 

`zippeR` provides several functions for downloading and using three-digit ZCTA data. They should be used with caution and the user should be aware of the limitations of the data described above.

## Labeling Three-digit ZIP Codes

The `zi_load_labels()` function can be used to load a set of labels for three-digit ZIP Codes. The function requires a `type` argument, which should be set to `"zip3"`. The function will return a tibble with the area and state associated with the SCF assigned to a particular three-digit ZIP.

```r
> zi_load_labels(source = "USPS", type = "zip3", vintage = 202408)
# A tibble: 931 × 3                                                                                                                                                                                    
   zip3  label_area label_state
   <chr> <chr>      <chr>      
 1 005   MID-ISLAND NY         
 2 006   SAN JUAN   PR         
 3 007   SAN JUAN   PR         
 4 008   SAN JUAN   PR         
 5 009   SAN JUAN   PR         
 6 010   HARTFORD   CT         
 7 011   HARTFORD   CT         
 8 012   HARTFORD   CT         
 9 013   CENTRAL    MA         
10 014   CENTRAL    MA         
# ℹ 921 more rows
# ℹ Use `print(n = ...)` to see more rows
```
…
