Aggregate ZCTAs to Three-digit ZCTAs — zi_aggregate • zippeR
…
  # the above data can be replicated with the following code:
  # zi_get_demographics(year = 2022, variables = c("B01003_001", "B19013_001"),
  #   survey = "acs5")

# load sample geometric data
mo22_zcta3 <- zi_mo_zcta3

  # the above data can be replicated with the following code:
  # zi_get_geometry(year = 2022, style = "zcta3", state = "MO",
  #   method = "intersect")

# aggregate a single variable
zi_aggregate(mo22_demos, year = 2020, extensive = "B01003_001", survey = "acs5",
  zcta = mo22_zcta3$ZCTA3)
#> # A tibble: 62 × 4
#> # Groups:   ZCTA3 [31]
#>    ZCTA3 variable   estimate     moe
#>    <chr> <chr>         <dbl>   <dbl>
#>  1 501   B01003_001   190606   1928.
#>  2 501   B19013_001  4927943 224587.
#>  3 516   B01003_001    22779    649.
#>  4 516   B19013_001  1326659 128553.
#>  5 525   B01003_001   109992   1607.
#>  6 525   B19013_001  2965635 153947.
#>  7 526   B01003_001   101629   1496.
#>  8 526   B19013_001  2187815 116391.
#>  9 620   B01003_001   296331   2842.
#> 10 620   B19013_001  4623927 163752.
#> # ℹ 52 more rows

# \donttest{
# aggregate multiple variables, outputting wide data
zi_aggregate(mo22_demos, year = 2020,
  extensive = "B01003_001", intensive = "B19013_001", survey = "acs5",
  zcta = mo22_zcta3$ZCTA3, output = "wide")
#> # A tibble: 31 × 5
#> # Groups:   ZCTA3 [31]
#>    ZCTA3 B01003_001E B01003_001M B19013_001E B19013_001M
#>    <chr>       <dbl>       <dbl>       <dbl>       <dbl>
#>  1 501        190606       1928.      74666.      19684.
#>  2 516         22779        649.      69824.      21896.
#>  3 525        109992       1607.      63099.      17528.
#>  4 526        101629       1496.      70575.      16179.
#>  5 620        296331       2842.      66056.      16494.
#>  6 630        736536       7216.      84735.      12280.
#>  7 631        901642       8313.      69807.       9031 
#>  8 633        536266       5361.      78343.      16652 
#>  9 634         67129       1583.      60690.      21671.
#> 10 635         60410       1185.      54968.      17621.
#> # ℹ 21 more rows
…
