Download Demographic Data for Five-digit ZCTAs — zi_get_demographics • zippeR
…
    Value

    A tibble containing all demographic data requested in either
    "tidy" or "wide" format.

    Examples

# \donttest{
  # download all ZCTAs
  zi_get_demographics(year = 2012, variables = "B01003_001", survey = "acs5")
#> # A tibble: 33,120 × 4
#>    GEOID variable   estimate   moe
#>    <chr> <chr>         <dbl> <dbl>
#>  1 00601 B01003_001    18544   271
#>  2 00602 B01003_001    41640   147
#>  3 00603 B01003_001    54540   735
#>  4 00606 B01003_001     6593   270
#>  5 00610 B01003_001    29141   180
#>  6 00612 B01003_001    69017  1500
#>  7 00616 B01003_001    10750  1084
#>  8 00617 B01003_001    24733   171
#>  9 00622 B01003_001     5923   984
#> 10 00623 B01003_001    44943   984
#> # ℹ 33,110 more rows
…
  ## download demographic data
  zi_get_demographics(year = 2012, variables = "B01003_001", survey = "acs5",
      zcta = mo20$GEOID)
#> # A tibble: 1,024 × 4
#>    GEOID variable   estimate   moe
#>    <chr> <chr>         <dbl> <dbl>
#>  1 51640 B01003_001     1687   145
#>  2 52542 B01003_001      340   126
#>  3 52573 B01003_001       84    61
#>  4 52626 B01003_001     1499   230
#>  5 63005 B01003_001    17741   706
#>  6 63010 B01003_001    36304   985
#>  7 63011 B01003_001    37114   907
#>  8 63012 B01003_001    10334   779
#>  9 63013 B01003_001     1697   489
#> 10 63014 B01003_001      483   150
#> # ℹ 1,014 more rows
…
