Load Crosswalk Files — zi_load_crosswalk • zippeR
…
key
Optional when zip_code is "HUD". This should be a
character string containing your HUD API key. Alternatively, it can be
stored in your .RProfile as hud_key.

    Value

    A tibble containing the crosswalk file.

    Examples

# \donttest{
 # former UDS mapper crosswalks
 zi_load_crosswalk(zip_source = "UDS", year = 2020)
#> # A tibble: 41,099 × 6
#>    ZIP   PO_NAME    STATE ZIP_TYPE                           ZCTA  ZIP_JOIN_TYPE
#>    <chr> <chr>      <chr> <chr>                              <chr> <chr>        
#>  1 00501 Holtsville NY    Post Office or large volume custo… 11742 Spatial join…
#>  2 00544 Holtsville NY    Post Office or large volume custo… 11742 Spatial join…
#>  3 00601 Adjuntas   PR    Zip Code Area                      00601 Zip matches …
#>  4 00602 Aguada     PR    Zip Code Area                      00602 Zip matches …
#>  5 00603 Aguadilla  PR    Zip Code Area                      00603 Zip matches …
#>  6 00604 Aguadilla  PR    Post Office or large volume custo… 00603 Spatial join…
#>  7 00605 Aguadilla  PR    Post Office or large volume custo… 00603 Spatial join…
#>  8 00606 Maricao    PR    Zip Code Area                      00606 Zip matches …
#>  9 00610 Anasco     PR    Zip Code Area                      00610 Zip matches …
#> 10 00611 Angeles    PR    Post Office or large volume custo… 00641 Spatial join…
#> # ℹ 41,089 more rows
…
