Three-digit ZIP Codes and ZCTAs • zippeR
…
zippeR provides several functions for downloading and
using three-digit ZCTA data. They should be used with caution and the
user should be aware of the limitations of the data described above.

Labeling Three-digit ZIP Codes

The zi_load_labels() function can be used to load a set
of labels for three-digit ZIP Codes. The function requires a
type argument, which should be set to "zip3".
The function will return a tibble with the area and state associated
with the SCF assigned to a particular three-digit ZIP.

> zi_load_labels(source = "USPS", type = "zip3", vintage = 202408)
# A tibble: 931 × 3                                                                                                                                                                                    
   zip3  label_area label_state
   <chr> <chr>      <chr>      
 1 005   MID-ISLAND NY         
 2 006   SAN JUAN   PR         
 3 007   SAN JUAN   PR         
 4 008   SAN JUAN   PR         
 5 009   SAN JUAN   PR         
 6 010   HARTFORD   CT         
 7 011   HARTFORD   CT         
 8 012   HARTFORD   CT         
 9 013   CENTRAL    MA         
10 014   CENTRAL    MA         
# ℹ 921 more rows
# ℹ Use `print(n = ...)` to see more rows
…
